Assignment_MLR
…
prediction

resid <- augment(modldl.1fbs)
resid

# A tibble: 4,069 × 13
   .rownames hba1c smoking       age hpt   weight   fbs .fitted   .resid    .hat
   <chr>     <dbl> <fct>       <dbl> <fct>  <dbl> <dbl>   <dbl>    <dbl>   <dbl>
 1 1           5.2 never smok…    70 yes     40    3.99    5.20 -0.00180 5.42e-3
 2 2           5.3 still smok…    20 no      54.6  4.26    4.91  0.391   2.69e-3
 3 3           4.8 never smok…    29 no      37    4.94    5.21 -0.413   1.68e-3
 4 4           4.8 still smok…    25 no      48.4  4.6     5.03 -0.232   2.63e-3
 5 5           5.1 never smok…    37 no      44.5  4.6     5.19 -0.0914  9.21e-4
 6 6           5.1 never smok…    43 no      45.5  4.42    5.17 -0.0718  7.64e-4
 7 7           4.8 never smok…    26 no      48    3.82    4.84 -0.0397  1.28e-3
 8 8           4.9 never smok…    28 no      40    4.4     5.02 -0.120   1.54e-3
 9 9           5.6 still smok…    48 no      48.4  4.8     5.27  0.330   2.02e-3
10 10          4.2 never smok…    20 no      41    3.68    4.69 -0.495   2.03e-3
# ℹ 4,059 more rows
# ℹ 3 more variables: .sigma <dbl>, .cooksd <dbl>, .std.resid <dbl>
…
outlier std residual

outlier <- resid %>% filter(.std.resid < -3 | .std.resid > 3)
outlier

# A tibble: 96 × 13
   .rownames hba1c smoking        age hpt   weight   fbs .fitted .resid    .hat
   <chr>     <dbl> <fct>        <dbl> <fct>  <dbl> <dbl>   <dbl>  <dbl>   <dbl>
 1 53         14.1 never smoked    32 no      46    5.06    5.34   8.76 0.00103
 2 83          5.2 never smoked    68 no      35   13.0     8.56  -3.36 0.00393
 3 246         4.5 never smoked    50 no      47.2 11.3     7.87  -3.37 0.00205
 4 247        10.6 never smoked    84 no      42.8  8.3     6.93   3.67 0.00276
 5 262        13   never smoked    46 no      43.2 11.5     7.89   5.11 0.00241
 6 311         8.8 never smoked    70 no      39    4.33    5.28   3.52 0.00178
 7 356         6.5 never smoked    38 yes     48   16.8     9.96  -3.46 0.0151 
 8 421         4.9 never smoked    62 no      43.5 11.7     8.09  -3.19 0.00252
 9 433        12.3 never smoked    42 no      42.9 14.2     8.90   3.40 0.00425
10 436        11.2 never smoked    24 no      44.1  4.59    5.09   6.11 0.00156
# ℹ 86 more rows
# ℹ 3 more variables: .sigma <dbl>, .cooksd <dbl>, .std.resid <dbl>

outlier cook

outliercook <- resid %>% filter(.cooksd >0.00097656)
outliercook

# A tibble: 252 × 13
   .rownames hba1c smoking         age hpt   weight   fbs .fitted .resid    .hat
   <chr>     <dbl> <fct>         <dbl> <fct>  <dbl> <dbl>   <dbl>  <dbl>   <dbl>
 1 28         10.3 never smoked     44 no      49.5 10.8     7.64   2.66 0.00180
 2 53         14.1 never smoked     32 no      46    5.06    5.34   8.76 0.00103
 3 69         10.5 quitted smok…    63 no      64.1 11.9     8.29   2.21 0.00476
 4 81          5   still smoking    70 no      30.8  8.7     6.80  -1.80 0.00429
 5 83          5.2 never smoked     68 no      35   13.0     8.56  -3.36 0.00393
 6 174         5.1 still smoking    32 no      49.8 10.6     7.41  -2.31 0.00364
 7 224        10   never smoked     42 no      52    9.64    7.21   2.79 0.00130
 8 246         4.5 never smoked     50 no      47.2 11.3     7.87  -3.37 0.00205
 9 247        10.6 never smoked     84 no      42.8  8.3     6.93   3.67 0.00276
10 262        13   never smoked     46 no      43.2 11.5     7.89   5.11 0.00241
# ℹ 242 more rows
# ℹ 3 more variables: .sigma <dbl>, .cooksd <dbl>, .std.resid <dbl>
…
